Corona Virus COVID-19 REPORT
…
report_03_20_2020 %>% 
  group_by(Country.Region) %>% 
  summarise(Deaths = sum(Deaths)) %>% 
  arrange(desc(Deaths))

## # A tibble: 174 x 2
##    Country.Region Deaths
##    <chr>           <dbl>
##  1 Italy            4032
##  2 China            3253
##  3 Iran             1433
##  4 Spain            1043
##  5 France            450
##  6 US                244
##  7 United Kingdom    178
##  8 Netherlands       107
##  9 Korea, South       94
## 10 Germany            67
## # ... with 164 more rows
…
